Textmining and wordsclouds
…
Textmining

Creating a second dataframe called Kolera_tidy

Each word now has their own seperate column

Kolera_tidy <- Kolera %>%
  unnest_tokens(word, fulltext_org)

Counting the most frequent words, without a stopwordlist

Kolera_tidy %>%
  count(word, sort = TRUE)

## # A tibble: 297,935 × 2
##    word      n
##    <chr> <int>
##  1 i     74658
##  2 og    67900
##  3 at    55649
##  4 den   43887
##  5 af    41786
##  6 til   41067
##  7 en    31040
##  8 de    28360
##  9 det   28227
## 10 for   27038
## # ℹ 297,925 more rows
…
## Rows: 571 Columns: 1
## ── Column specification ────────────────────────────────────────────────────────
## Delimiter: ","
## chr (1): word
## 
## ℹ Use `spec()` to retrieve the full column specification for this data.
## ℹ Specify the column types or set `show_col_types = FALSE` to quiet this message.

Counting the most frequent words, including the stopwordlist

Kolera_tidy %>% 
  anti_join(stopord_kolera, by = "word") %>%
  count(word, sort = TRUE)

## # A tibble: 297,404 × 2
##    word        n
##    <chr>   <int>
##  1 kolera   3531
##  2 cholera  3012
##  3 august   2352
##  4 været    2015
##  5 dode     1914
##  6 vel      1891
##  7 juli     1793
##  8 syge     1750
##  9 mange    1602
## 10 nye      1467
## # ℹ 297,394 more rows
…
Creating a new dataframe; Kolera_tidy_year

Contains a new column, with years as value

Kolera_tidy %>% 
  mutate(y=year(timestamp)) -> Kolera_tidy_year

Counting the most frequent words per year, with stopwordlist

Kolera_tidy_year %>% 
  anti_join(stopord_kolera, by = "word") %>%
  count(word, y, sort = TRUE)

## # A tibble: 477,962 × 3
##    word        y     n
##    <chr>   <dbl> <int>
##  1 kolera   1853  3033
##  2 august   1853  1517
##  3 dode     1853  1489
##  4 syge     1853  1408
##  5 cholera  1853  1375
##  6 juli     1853  1123
##  7 1853     1853   827
##  8 vel      1853   697
##  9 mange    1853   619
## 10 været    1853   606
## # ℹ 477,952 more rows
…
Creating a frequency of the mentioned words pr. year, compared to
the total occurence of words

Kolera_year_count %>%
  anti_join(stopord_kolera, by = "word") %>%
  bind_tf_idf(word, y, n) -> Kolera_year_tf_idf

Arranging the words in descending order by frequency value

Kolera_year_tf_idf %>%
  arrange(desc(tf_idf))

## # A tibble: 477,962 × 7
##    word         y     n  total       tf   idf   tf_idf
##    <chr>    <dbl> <int>  <int>    <dbl> <dbl>    <dbl>
##  1 gaardm    1852    16  80812 0.000412 2.30  0.000950
##  2 pross     1859    12  68678 0.000369 2.30  0.000849
##  3 1857      1857   120 283788 0.000891 0.916 0.000817
##  4 1857      1859    27  68678 0.000830 0.916 0.000760
##  5 cooke     1859    10  68678 0.000307 2.30  0.000707
##  6 roland    1852    22  80812 0.000567 1.20  0.000683
##  7 1857      1858    23  66110 0.000716 0.916 0.000656
##  8 russerne  1854   142 418139 0.000714 0.916 0.000654
##  9 mailly    1852    11  80812 0.000284 2.30  0.000653
## 10 1858      1858    28  66110 0.000871 0.693 0.000604
## # ℹ 477,952 more rows
…
Creating a new dataframe; Kolera_month_1853_tidy

Creating a column containing months in 1853

Kolera_1853_tidy %>%
  mutate(m = month(timestamp)) -> Kolera_month_1853_tidy

Counting words per month in 1853 without stopwordlist

Kolera_month_1853_tidy %>% 
  count(word, m, sort = TRUE)

## # A tibble: 222,984 × 3
##    word      m     n
##    <chr> <dbl> <int>
##  1 i         8  9327
##  2 og        8  8223
##  3 i         9  6722
##  4 i         7  6292
##  5 og        9  6270
##  6 at        8  5881
##  7 den       8  5754
##  8 og        7  5694
##  9 til       8  4796
## 10 af        8  4423
## # ℹ 222,974 more rows
…
Creating a new dataframe; Kolera_month_1853_tf_idf

Creating a frequency of the most mentionened words pr. month
compared to the total mentioning in 1853

Kolera_month_1853_count %>%
  anti_join(stopord_kolera, by = "word") %>%
  bind_tf_idf(word, m, n) -> Kolera_month_1853_tf_idf

Arranging the words in descending order

Kolera_month_1853_tf_idf %>%
  arrange(desc(tf_idf))

## # A tibble: 218,559 × 7
##    word                 m     n total      tf   idf  tf_idf
##    <chr>            <dbl> <int> <int>   <dbl> <dbl>   <dbl>
##  1 benson               4     5  1717 0.00652 2.40  0.0156 
##  2 opf                  1    10  2666 0.00584 1.70  0.00995
##  3 andersdatter         4     3  1717 0.00391 2.40  0.00938
##  4 inbb                 2     7  2497 0.00517 1.70  0.00882
##  5 hoveiigaarden        1     6  2666 0.00350 2.40  0.00840
##  6 hl                   1    30  2666 0.0175  0.452 0.00792
##  7 opl                  1     9  2666 0.00525 1.30  0.00683
##  8 salicath             4     4  1717 0.00522 1.30  0.00678
##  9 fljander             4     2  1717 0.00261 2.40  0.00625
## 10 landsoverrettens     4     2  1717 0.00261 2.40  0.00625
## # ℹ 218,549 more rows
…
